{
  "project_info": {
    "project_number": "489125370402",
    "firebase_url": "https://tecapp-338e4.firebaseio.com",
    "project_id": "tecapp-338e4",
    "storage_bucket": "tecapp-338e4.appspot.com"
  },
  "client": [
    {
      "client_info": {
        "mobilesdk_app_id": "1:489125370402:android:819ed89d08532bfc",
        "android_client_info": {
          "package_name": "com.example.macosx.tecappauth"
        }
      },
      "oauth_client": [
        {
          "client_id": "489125370402-gub4ct6gh0gr8180glscfvihsdb7jntk.apps.googleusercontent.com",
          "client_type": 3
        }
      ],
      "api_key": [
        {
          "current_key": "AIzaSyAXbEr8c5gvAUINvJGbPa1kx5UPq5obLWo"
        }
      ],
      "services": {
        "analytics_service": {
          "status": 1
        },
        "appinvite_service": {
          "status": 1,
          "other_platform_oauth_client": []
        },
        "ads_service": {
          "status": 2
        }
      }
    },
    {
      "client_info": {
        "mobilesdk_app_id": "1:489125370402:android:cec0ef0bfd2fef28",
        "android_client_info": {
          "package_name": "com.example.macosx.tecappfire"
        }
      },
      "oauth_client": [
        {
          "client_id": "489125370402-gub4ct6gh0gr8180glscfvihsdb7jntk.apps.googleusercontent.com",
          "client_type": 3
        }
      ],
      "api_key": [
        {
          "current_key": "AIzaSyAXbEr8c5gvAUINvJGbPa1kx5UPq5obLWo"
        }
      ],
      "services": {
        "analytics_service": {
          "status": 1
        },
        "appinvite_service": {
          "status": 1,
          "other_platform_oauth_client": []
        },
        "ads_service": {
          "status": 2
        }
      }
    },
    {
      "client_info": {
        "mobilesdk_app_id": "1:489125370402:android:87fcb66cc6ca320a",
        "android_client_info": {
          "package_name": "com.google.firebase.quickstart.auth"
        }
      },
      "oauth_client": [
        {
          "client_id": "489125370402-k340p26ghh41mi03i7ksdi41pvu10q3g.apps.googleusercontent.com",
          "client_type": 1,
          "android_info": {
            "package_name": "com.google.firebase.quickstart.auth",
            "certificate_hash": "509e956eab8027b3ecc0484891db7cef85a384b5"
          }
        },
        {
          "client_id": "489125370402-gub4ct6gh0gr8180glscfvihsdb7jntk.apps.googleusercontent.com",
          "client_type": 3
        }
      ],
      "api_key": [
        {
          "current_key": "AIzaSyAXbEr8c5gvAUINvJGbPa1kx5UPq5obLWo"
        }
      ],
      "services": {
        "analytics_service": {
          "status": 1
        },
        "appinvite_service": {
          "status": 2,
          "other_platform_oauth_client": [
            {
              "client_id": "489125370402-gub4ct6gh0gr8180glscfvihsdb7jntk.apps.googleusercontent.com",
              "client_type": 3
            }
          ]
        },
        "ads_service": {
          "status": 2
        }
      }
    }
  ],
  "configuration_version": "1"
}